…
```r
dim(elephants)
```

```
## [1] 288   3
```

```r
select(elephants, sex) %>%
  filter(sex == "M")
```

```
## # A tibble: 138 × 1
##    sex  
##    <chr>
##  1 M    
##  2 M    
##  3 M    
##  4 M    
##  5 M    
##  6 M    
##  7 M    
##  8 M    
##  9 M    
## 10 M    
## # … with 128 more rows
```
…
```
## [1] 10.97132
```


7. (2 points) How does the average age and height of elephants compare by sex?

```r
select(elephants, age, height, sex)
```

```
## # A tibble: 288 × 3
##      age height sex  
##    <dbl>  <dbl> <chr>
##  1   1.4   120  M    
##  2  17.5   227  M    
##  3  12.8   235  M    
##  4  11.2   210  M    
##  5  12.7   220  M    
##  6  12.7   189  M    
##  7  12.2   225  M    
##  8  12.2   204  M    
##  9  28.2   266. M    
## 10  11.7   233  M    
## # … with 278 more rows
```

8. (2 points) How does the average height of elephants compare by sex for individuals over 20 years old. Include the min and max height as well as the number of individuals in the sample as part of your analysis.  


```r
select(elephants, age, height, sex) %>%
  filter(age > 20) %>%
  arrange(height)
```

```
## # A tibble: 50 × 3
##      age height sex  
##    <dbl>  <dbl> <chr>
##  1  24.7   193. F    
##  2  26.5   206. F    
##  3  27.4   207. F    
##  4  26.4   210. F    
##  5  22.2   210. F    
##  6  28.2   216. F    
##  7  26.1   216. F    
##  8  25.2   218. F    
##  9  26.7   221. F    
## 10  25.6   222. F    
## # … with 40 more rows
```
…
```r
select (hunting, Rich_BirdSpecies, Rich_MammalSpecies)
```

```
## # A tibble: 24 × 2
##    Rich_BirdSpecies Rich_MammalSpecies
##               <dbl>              <dbl>
##  1               11                 11
##  2               10                 10
##  3               11                 11
##  4                8                 11
##  5                8                 12
##  6               10                 12
##  7               11                 12
##  8               11                  8
##  9               11                  8
## 10                9                 10
## # … with 14 more rows
```
…
12. (4 points) Based on your interest, do one exploratory analysis on the `gabon` data of your choice. This analysis needs to include a minimum of two functions in `dplyr.`


```r
select (hunting, starts_with("diversity")) %>%
  filter(hunting >= 1.5) %>%
  arrange(Diversity_AllSpecies)
```

```
## # A tibble: 23 × 3
##    Diversity_AllSpecies Diversity_BirdSpecies Diversity_MammalSpecies
##                   <dbl>                 <dbl>                   <dbl>
##  1                 1.97                  1.26                    1.80
##  2                 2.01                  1.16                    1.48
##  3                 2.13                  1.46                    1.44
##  4                 2.16                  1.68                    2.06
##  5                 2.19                  1.60                    1.38
##  6                 2.23                  1.65                    1.64
##  7                 2.25                  1.71                    1.57
##  8                 2.27                  1.71                    1.51
##  9                 2.27                  1.60                    1.69
## 10                 2.28                  1.88                    1.71
## # … with 13 more rows
```
