…
2. Use `janitor` to rename the columns and make them easier to use. As part of this cleaning step, change `country`, `isscaap_group_number`, `asfis_species_number`, and `fao_major_fishing_area` to data class factor. 

```r
fisheries_c <- fisheries %>%
  clean_names()
fisheries_c
```

```
## # A tibble: 17,692 × 71
##    country common_name        isscaap_group_n… isscaap_taxonom… asfis_species_n…
##    <chr>   <chr>                         <dbl> <chr>            <chr>           
##  1 Albania Angelsharks, sand…               38 Sharks, rays, c… 10903XXXXX      
##  2 Albania Atlantic bonito                  36 Tunas, bonitos,… 1750100101      
##  3 Albania Barracudas nei                   37 Miscellaneous p… 17710001XX      
##  4 Albania Blue and red shri…               45 Shrimps, prawns  2280203101      
##  5 Albania Blue whiting(=Pou…               32 Cods, hakes, ha… 1480403301      
##  6 Albania Bluefish                         37 Miscellaneous p… 1702021301      
##  7 Albania Bogue                            33 Miscellaneous c… 1703926101      
##  8 Albania Caramote prawn                   45 Shrimps, prawns  2280100117      
##  9 Albania Catsharks, nurseh…               38 Sharks, rays, c… 10801003XX      
## 10 Albania Common cuttlefish                57 Squids, cuttlef… 3210200202      
## # … with 17,682 more rows, and 66 more variables: asfis_species_name <chr>,
## #   fao_major_fishing_area <dbl>, measure <chr>, x1950 <chr>, x1951 <chr>,
## #   x1952 <chr>, x1953 <chr>, x1954 <chr>, x1955 <chr>, x1956 <chr>,
## #   x1957 <chr>, x1958 <chr>, x1959 <chr>, x1960 <chr>, x1961 <chr>,
## #   x1962 <chr>, x1963 <chr>, x1964 <chr>, x1965 <chr>, x1966 <chr>,
## #   x1967 <chr>, x1968 <chr>, x1969 <chr>, x1970 <chr>, x1971 <chr>,
## #   x1972 <chr>, x1973 <chr>, x1974 <chr>, x1975 <chr>, x1976 <chr>, …
```
…
3. How many countries are represented in the data? Provide a count and list their names.

```r
fisheries_c %>% 
  count(country, sort = T)
```

```
## # A tibble: 204 × 2
##    country                      n
##    <chr>                    <int>
##  1 Spain                      915
##  2 Portugal                   763
##  3 United States of America   627
##  4 Korea, Republic of         620
##  5 Japan                      611
##  6 Russian Federation         523
##  7 Un. Sov. Soc. Rep.         515
##  8 France                     489
##  9 United Kingdom             362
## 10 Taiwan Province of China   310
## # … with 194 more rows
```
…
6. Which country had the largest overall catch in the year 2000?

```r
fisheries_c %>% 
  group_by(x2000, country) %>%
  count(measure, sort = T) %>%
  arrange(measure)
```

```
## # A tibble: 7,579 × 4
## # Groups:   x2000, country [7,579]
##    x2000 country            measure               n
##    <chr> <chr>              <chr>             <int>
##  1 <NA>  Spain              Quantity (tonnes)   523
##  2 <NA>  Un. Sov. Soc. Rep. Quantity (tonnes)   515
##  3 <NA>  Portugal           Quantity (tonnes)   408
##  4 <NA>  Japan              Quantity (tonnes)   370
##  5 <NA>  Korea, Republic of Quantity (tonnes)   355
##  6 <NA>  Russian Federation Quantity (tonnes)   331
##  7 <NA>  Germany            Quantity (tonnes)   245
##  8 <NA>  Poland             Quantity (tonnes)   239
##  9 <NA>  France             Quantity (tonnes)   210
## 10 <NA>  Ukraine            Quantity (tonnes)   208
## # … with 7,569 more rows
```
…
9. Which species had the highest catch total between 2008-2012? (hint: Osteichthyes is not a species)

```r
fisheries_c %>%
  select(common_name) %>%
  count(common_name, sort = T)
```

```
## # A tibble: 1,553 × 2
##    common_name                        n
##    <chr>                          <int>
##  1 Marine fishes nei                446
##  2 Yellowfin tuna                   288
##  3 Tunalike fishes nei              270
##  4 Sharks, rays, skates, etc. nei   269
##  5 Bigeye tuna                      264
##  6 Skipjack tuna                    253
##  7 Swordfish                        248
##  8 Albacore                         220
##  9 Various squids nei               182
## 10 Rays, stingrays, mantas nei      172
## # … with 1,543 more rows
```
…
