…
1. (3 points) Once you have an idea of the structure of the data, please make each data set tidy (hint: think back to pivots) and store them as new objects. You will need both the original (wide) and tidy (long) data! 

```r
populations_tidy <- 
  populations %>% 
  pivot_longer(-country, 
               names_to = "year",
               values_to = "pop.",
               values_drop_na = TRUE
               )
populations_tidy
```

```
## # A tibble: 58,695 × 3
##    country     year     pop.
##    <chr>       <chr>   <dbl>
##  1 Afghanistan 1800  3280000
##  2 Afghanistan 1801  3280000
##  3 Afghanistan 1802  3280000
##  4 Afghanistan 1803  3280000
##  5 Afghanistan 1804  3280000
##  6 Afghanistan 1805  3280000
##  7 Afghanistan 1806  3280000
##  8 Afghanistan 1807  3280000
##  9 Afghanistan 1808  3280000
## 10 Afghanistan 1809  3280000
## # … with 58,685 more rows
```


```r
incomes_tidy <- 
  incomes %>% 
  pivot_longer(-country, 
               names_to = "year",
               values_to = "incomes",
               values_drop_na = TRUE
               )
incomes_tidy
```

```
## # A tibble: 46,513 × 3
##    country     year  incomes
##    <chr>       <chr>   <dbl>
##  1 Afghanistan 1800      603
##  2 Afghanistan 1801      603
##  3 Afghanistan 1802      603
##  4 Afghanistan 1803      603
##  5 Afghanistan 1804      603
##  6 Afghanistan 1805      603
##  7 Afghanistan 1806      603
##  8 Afghanistan 1807      603
##  9 Afghanistan 1808      603
## 10 Afghanistan 1809      603
## # … with 46,503 more rows
```


```r
life_expectancy_tidy <- 
  life_expectancy %>% 
  pivot_longer(-country, 
               names_to = "year",
               values_to = "age",
               values_drop_na = TRUE
               )
life_expectancy_tidy
```

```
## # A tibble: 55,528 × 3
##    country     year    age
##    <chr>       <chr> <dbl>
##  1 Afghanistan 1800   28.2
##  2 Afghanistan 1801   28.2
##  3 Afghanistan 1802   28.2
##  4 Afghanistan 1803   28.2
##  5 Afghanistan 1804   28.2
##  6 Afghanistan 1805   28.2
##  7 Afghanistan 1806   28.1
##  8 Afghanistan 1807   28.1
##  9 Afghanistan 1808   28.1
## 10 Afghanistan 1809   28.1
## # … with 55,518 more rows
```

2. (1 point) How many different countries are represented in the data? Provide the total number and their names. Since each data set includes different numbers of countries, you will need to do this for each one.  

```r
populations %>% 
  count(country, sort=T)
```

```
## # A tibble: 195 × 2
##    country                 n
##    <chr>               <int>
##  1 Afghanistan             1
##  2 Albania                 1
##  3 Algeria                 1
##  4 Andorra                 1
##  5 Angola                  1
##  6 Antigua and Barbuda     1
##  7 Argentina               1
##  8 Armenia                 1
##  9 Australia               1
## 10 Austria                 1
## # … with 185 more rows
```

```r
incomes %>% 
  count(country, sort=T)
```

```
## # A tibble: 193 × 2
##    country                 n
##    <chr>               <int>
##  1 Afghanistan             1
##  2 Albania                 1
##  3 Algeria                 1
##  4 Andorra                 1
##  5 Angola                  1
##  6 Antigua and Barbuda     1
##  7 Argentina               1
##  8 Armenia                 1
##  9 Australia               1
## 10 Austria                 1
## # … with 183 more rows
```


```r
life_expectancy %>% 
  count(country, sort=T)
```

```
## # A tibble: 187 × 2
##    country                 n
##    <chr>               <int>
##  1 Afghanistan             1
##  2 Albania                 1
##  3 Algeria                 1
##  4 Andorra                 1
##  5 Angola                  1
##  6 Antigua and Barbuda     1
##  7 Argentina               1
##  8 Armenia                 1
##  9 Australia               1
## 10 Austria                 1
## # … with 177 more rows
```
…
3. (2 points) Let's limit the data to 100 years (1920-2020). For these years, which country has the highest average life expectancy? How about the lowest average life expectancy? 


```r
life_expectancy_tidy2 <-
  life_expectancy_tidy %>%
  select (country, year, age)%>%
  filter (year >= "1920") %>%
  filter(year < "2021") 
life_expectancy_tidy2 
```

```
## # A tibble: 18,728 × 3
##    country     year    age
##    <chr>       <chr> <dbl>
##  1 Afghanistan 1920   30.6
##  2 Afghanistan 1921   30.7
##  3 Afghanistan 1922   30.8
##  4 Afghanistan 1923   30.8
##  5 Afghanistan 1924   30.9
##  6 Afghanistan 1925   31  
##  7 Afghanistan 1926   31  
##  8 Afghanistan 1927   31.1
##  9 Afghanistan 1928   31.1
## 10 Afghanistan 1929   31.2
## # … with 18,718 more rows
```

```r
life_expectancy_tidy2 %>% 
  group_by(country) %>% 
  summarize(mean_age=mean(age, na.rm=T))%>%
  arrange (desc(mean_age))
```

```
## # A tibble: 187 × 2
##    country     mean_age
##    <chr>          <dbl>
##  1 Andorra         79.8
##  2 Sweden          73.5
##  3 Norway          73.2
##  4 Netherlands     73.0
##  5 Dominica        73.0
##  6 Iceland         72.9
##  7 Australia       72.7
##  8 Switzerland     72.7
##  9 Denmark         71.9
## 10 Canada          71.8
## # … with 177 more rows
```
…
```r
life_expectancy_tidyx <-
  life_expectancy_tidy %>%
  select (country, year, age)%>%
  filter (year == "1920" | year == "2020")
life_expectancy_tidyx 
```

```
## # A tibble: 368 × 3
##    country             year    age
##    <chr>               <chr> <dbl>
##  1 Afghanistan         1920   30.6
##  2 Afghanistan         2020   64.4
##  3 Albania             1920   35.4
##  4 Albania             2020   78.6
##  5 Algeria             1920   29.6
##  6 Algeria             2020   78.3
##  7 Angola              1920   30.4
##  8 Angola              2020   65.4
##  9 Antigua and Barbuda 1920   33.9
## 10 Antigua and Barbuda 2020   77.4
## # … with 358 more rows
```

```r
life_expectancy_tidyr <- life_expectancy_tidyx %>% 
  group_by(country) %>%
    mutate(life_growth = age[year == "2020"] - age[year == '1920']) %>%
  arrange(desc(life_growth)) 
life_expectancy_tidyr
```

```
## # A tibble: 368 × 4
## # Groups:   country [184]
##    country         year    age life_growth
##    <chr>           <chr> <dbl>       <dbl>
##  1 Kuwait          1920   26.6        56.8
##  2 Kuwait          2020   83.4        56.8
##  3 Kyrgyz Republic 1920   16.6        56.5
##  4 Kyrgyz Republic 2020   73.1        56.5
##  5 Turkmenistan    1920   15.2        55.3
##  6 Turkmenistan    2020   70.5        55.3
##  7 South Korea     1920   28.2        55  
##  8 South Korea     2020   83.2        55  
##  9 Tajikistan      1920   16.7        54.3
## 10 Tajikistan      2020   71          54.3
## # … with 358 more rows
```


```r
life_expectancy_highest <- life_expectancy_tidy2 %>% 
  filter(country=='Kuwait'| country=='Kyrgyz Republic' | country=='Turkmenistan'| country=='South Korea'| country=='Tajikistan')
life_expectancy_highest
```

```
## # A tibble: 505 × 3
##    country year    age
##    <chr>   <chr> <dbl>
##  1 Kuwait  1920   26.6
##  2 Kuwait  1921   26.6
##  3 Kuwait  1922   26.6
##  4 Kuwait  1923   26.6
##  5 Kuwait  1924   26.7
##  6 Kuwait  1925   26.7
##  7 Kuwait  1926   26.7
##  8 Kuwait  1927   26.7
##  9 Kuwait  1928   26.7
## 10 Kuwait  1929   26.7
## # … with 495 more rows
```
…
5. (3 points) Make a plot that shows the change over the past 100 years for the country with the biggest improvement in life expectancy. Be sure to add appropriate aesthetics to make the plot clean and clear. Once you have made the plot, do a little internet searching and see if you can discover what historical event may have contributed to this remarkable change.  


```r
life_expectancy_tidy4 <- 
life_expectancy_tidy2 %>%
  filter(country == "Kuwait")
life_expectancy_tidy4
```

```
## # A tibble: 101 × 3
##    country year    age
##    <chr>   <chr> <dbl>
##  1 Kuwait  1920   26.6
##  2 Kuwait  1921   26.6
##  3 Kuwait  1922   26.6
##  4 Kuwait  1923   26.6
##  5 Kuwait  1924   26.7
##  6 Kuwait  1925   26.7
##  7 Kuwait  1926   26.7
##  8 Kuwait  1927   26.7
##  9 Kuwait  1928   26.7
## 10 Kuwait  1929   26.7
## # … with 91 more rows
```
…
## Population Growth
6. (3 points) Which 5 countries have had the highest population growth over the past 100 years (1920-2020)?  

```r
populations_tidy_100 <-
  populations_tidy %>%
  select (country, year, pop.)%>%
  filter (year >= "1920") %>%
  filter(year < "2021") 
populations_tidy_100
```

```
## # A tibble: 19,695 × 3
##    country     year      pop.
##    <chr>       <chr>    <dbl>
##  1 Afghanistan 1920  10600000
##  2 Afghanistan 1921  10500000
##  3 Afghanistan 1922  10300000
##  4 Afghanistan 1923   9710000
##  5 Afghanistan 1924   9200000
##  6 Afghanistan 1925   8720000
##  7 Afghanistan 1926   8260000
##  8 Afghanistan 1927   7830000
##  9 Afghanistan 1928   7420000
## 10 Afghanistan 1929   7100000
## # … with 19,685 more rows
```


```r
populations_tidy2 <-
  populations_tidy %>%
  select (country, year, pop.)%>%
  filter (year == "1920" | year == "2020")
populations_tidy2 
```

```
## # A tibble: 390 × 3
##    country     year      pop.
##    <chr>       <chr>    <dbl>
##  1 Afghanistan 1920  10600000
##  2 Afghanistan 2020  38900000
##  3 Albania     1920    949000
##  4 Albania     2020   2880000
##  5 Algeria     1920   5750000
##  6 Algeria     2020  43900000
##  7 Andorra     1920      5820
##  8 Andorra     2020     77300
##  9 Angola      1920   2880000
## 10 Angola      2020  32900000
## # … with 380 more rows
```



```r
populations_tidy3 <- populations_tidy2 %>% 
  group_by(country) %>%
    mutate(pop_growth = pop.[year == "2020"] - pop.[year == '1920']) %>%
  arrange(desc(pop_growth)) 
populations_tidy3
```

```
## # A tibble: 390 × 4
## # Groups:   country [195]
##    country       year        pop. pop_growth
##    <chr>         <chr>      <dbl>      <dbl>
##  1 India         1920   317000000 1063000000
##  2 India         2020  1380000000 1063000000
##  3 China         1920   472000000  968000000
##  4 China         2020  1440000000  968000000
##  5 Indonesia     1920    47300000  226700000
##  6 Indonesia     2020   274000000  226700000
##  7 United States 1920   111000000  220000000
##  8 United States 2020   331000000  220000000
##  9 Pakistan      1920    21700000  199300000
## 10 Pakistan      2020   221000000  199300000
## # … with 380 more rows
```
…
8. (4 points) As in the previous questions, which countries have experienced the biggest growth in per person GDP. Show this as a table and then plot the changes for the top 5 countries. With a bit of research, you should be able to explain the dramatic downturns of the wealthiest economies that occurred during the 1980's.  

```r
incomes_tidy_100 <-
  incomes_tidy %>%
  select (country, year, incomes)%>%
  filter (year >= "1920") %>%
filter (year < "2020")
incomes_tidy_100
```

```
## # A tibble: 19,300 × 3
##    country     year  incomes
##    <chr>       <chr>   <dbl>
##  1 Afghanistan 1920     1490
##  2 Afghanistan 1921     1520
##  3 Afghanistan 1922     1550
##  4 Afghanistan 1923     1570
##  5 Afghanistan 1924     1600
##  6 Afghanistan 1925     1630
##  7 Afghanistan 1926     1650
##  8 Afghanistan 1927     1680
##  9 Afghanistan 1928     1710
## 10 Afghanistan 1929     1740
## # … with 19,290 more rows
```


```r
incomes_tidy2 <-
  incomes_tidy %>%
  select (country, year, incomes)%>%
  filter (year == "1920" | year == "2020")
incomes_tidy2 
```

```
## # A tibble: 386 × 3
##    country     year  incomes
##    <chr>       <chr>   <dbl>
##  1 Afghanistan 1920     1490
##  2 Afghanistan 2020     1800
##  3 Albania     1920     1530
##  4 Albania     2020    13200
##  5 Algeria     1920     2360
##  6 Algeria     2020    14000
##  7 Andorra     1920     4190
##  8 Andorra     2020    55000
##  9 Angola      1920     1250
## 10 Angola      2020     5440
## # … with 376 more rows
```


```r
incomes_tidy3 <- incomes_tidy2 %>% 
  group_by(country) %>%
    mutate(GDP_growth = incomes[year == "2020"] - incomes[year == '1920']) %>%
  arrange(desc(GDP_growth)) 
incomes_tidy3
```

```
## # A tibble: 386 × 4
## # Groups:   country [193]
##    country    year  incomes GDP_growth
##    <chr>      <chr>   <dbl>      <dbl>
##  1 Qatar      1920     2300     113700
##  2 Qatar      2020   116000     113700
##  3 Luxembourg 1920     5730      89370
##  4 Luxembourg 2020    95100      89370
##  5 Singapore  1920     2440      88060
##  6 Singapore  2020    90500      88060
##  7 Brunei     1920     2130      72970
##  8 Brunei     2020    75100      72970
##  9 Ireland    1920     5170      68930
## 10 Ireland    2020    74100      68930
## # … with 376 more rows
```
…
```r
incomes_high <- incomes_tidy_100 %>% 
  filter(country=='Qatar'| country=='Luxembourg' | country=='Singapore'| country=='Brunei'| country=='Ireland')
incomes_high
```

```
## # A tibble: 500 × 3
##    country year  incomes
##    <chr>   <chr>   <dbl>
##  1 Brunei  1920     2130
##  2 Brunei  1921     2140
##  3 Brunei  1922     2150
##  4 Brunei  1923     2160
##  5 Brunei  1924     2170
##  6 Brunei  1925     2180
##  7 Brunei  1926     2190
##  8 Brunei  1927     2200
##  9 Brunei  1928     2210
## 10 Brunei  1929     2220
## # … with 490 more rows
```
…
9. (3 points) Create three new objects that restrict each data set (life expectancy, population, income) to the years 1920-2020. Hint: I suggest doing this with the long form of your data. Once this is done, merge all three data sets using the code I provide below. You may need to adjust the code depending on how you have named your objects. I called mine `life_expectancy_100`, `population_100`, and `income_100`. For some of you, learning these `joins` will be important for your project.  


```r
gapminder_join <- inner_join(life_expectancy_tidy2, populations_tidy_100, by= c("country", "year"))
gapminder_join <- inner_join(gapminder_join, incomes_tidy_100, by= c("country", "year"))
gapminder_join
```

```
## # A tibble: 18,544 × 5
##    country     year    age     pop. incomes
##    <chr>       <chr> <dbl>    <dbl>   <dbl>
##  1 Afghanistan 1920   30.6 10600000    1490
##  2 Afghanistan 1921   30.7 10500000    1520
##  3 Afghanistan 1922   30.8 10300000    1550
##  4 Afghanistan 1923   30.8  9710000    1570
##  5 Afghanistan 1924   30.9  9200000    1600
##  6 Afghanistan 1925   31    8720000    1630
##  7 Afghanistan 1926   31    8260000    1650
##  8 Afghanistan 1927   31.1  7830000    1680
##  9 Afghanistan 1928   31.1  7420000    1710
## 10 Afghanistan 1929   31.2  7100000    1740
## # … with 18,534 more rows
```
…
