…
### 1. 
Clean up the column names (no capitals, not spaces) of `superhero_info`, then use 2 functions to remind yourself of structure of the `superhero_info` data set.

```r
superhero_info
```

```
## # A tibble: 734 × 10
##    name      Gender `Eye color` Race  `Hair color` Height Publisher `Skin color`
##    <chr>     <chr>  <chr>       <chr> <chr>         <dbl> <chr>     <chr>       
##  1 A-Bomb    Male   yellow      Human No Hair         203 Marvel C… <NA>        
##  2 Abe Sapi… Male   blue        Icth… No Hair         191 Dark Hor… blue        
##  3 Abin Sur  Male   blue        Unga… No Hair         185 DC Comics red         
##  4 Abominat… Male   green       Huma… No Hair         203 Marvel C… <NA>        
##  5 Abraxas   Male   blue        Cosm… Black            NA Marvel C… <NA>        
##  6 Absorbin… Male   blue        Human No Hair         193 Marvel C… <NA>        
##  7 Adam Mon… Male   blue        <NA>  Blond            NA NBC - He… <NA>        
##  8 Adam Str… Male   blue        Human Blond           185 DC Comics <NA>        
##  9 Agent 13  Female blue        <NA>  Blond           173 Marvel C… <NA>        
## 10 Agent Bob Male   brown       Human Brown           178 Marvel C… <NA>        
## # … with 724 more rows, and 2 more variables: Alignment <chr>, Weight <dbl>
```


```r
superhero_info1 <- clean_names(superhero_info)
superhero_info1
```

```
## # A tibble: 734 × 10
##    name  gender eye_color race  hair_color height publisher skin_color alignment
##    <chr> <chr>  <chr>     <chr> <chr>       <dbl> <chr>     <chr>      <chr>    
##  1 A-Bo… Male   yellow    Human No Hair       203 Marvel C… <NA>       good     
##  2 Abe … Male   blue      Icth… No Hair       191 Dark Hor… blue       good     
##  3 Abin… Male   blue      Unga… No Hair       185 DC Comics red        good     
##  4 Abom… Male   green     Huma… No Hair       203 Marvel C… <NA>       bad      
##  5 Abra… Male   blue      Cosm… Black          NA Marvel C… <NA>       bad      
##  6 Abso… Male   blue      Human No Hair       193 Marvel C… <NA>       bad      
##  7 Adam… Male   blue      <NA>  Blond          NA NBC - He… <NA>       good     
##  8 Adam… Male   blue      Human Blond         185 DC Comics <NA>       good     
##  9 Agen… Female blue      <NA>  Blond         173 Marvel C… <NA>       good     
## 10 Agen… Male   brown     Human Brown         178 Marvel C… <NA>       good     
## # … with 724 more rows, and 1 more variable: weight <dbl>
```
…
### 6. 
Remind yourself what `beachbugs` looks like. Then generate a heatmap of buglevels by site and year. 
color it with `scale_fill_gradient(low="yellow", high="red")` or colors of your choice. you may find it looks best with one color!
(dont forget, `coord_flip()` is a quick way to improve the look of your plot if you dont like the default orientation)


```r
(beachbugs_long)
```

```
## # A tibble: 66 × 3
##     year site                    buglevels
##    <dbl> <chr>                       <dbl>
##  1  2013 Bondi Beach                 32.2 
##  2  2013 Bronte Beach                26.8 
##  3  2013 Clovelly Beach               9.28
##  4  2013 Coogee Beach                39.7 
##  5  2013 Gordons Bay (East)          24.8 
##  6  2013 Little Bay Beach           122.  
##  7  2013 Malabar Beach              101.  
##  8  2013 Maroubra Beach              47.1 
##  9  2013 South Maroubra Beach        39.3 
## 10  2013 South Maroubra Rockpool     96.4 
## # … with 56 more rows
```
…
```r
#makes a new column of the highest buglevel observed at each site
beachbugs_w_max <- beachbugs_long %>% 
  group_by(site) %>% 
  mutate(max_buglevel = max(buglevels, na.rm=T)) %>% 
  arrange(site)
beachbugs_w_max
```

```
## # A tibble: 66 × 4
## # Groups:   site [11]
##     year site         buglevels max_buglevel
##    <dbl> <chr>            <dbl>        <dbl>
##  1  2013 Bondi Beach       32.2         32.2
##  2  2014 Bondi Beach       11.1         32.2
##  3  2015 Bondi Beach       14.3         32.2
##  4  2016 Bondi Beach       19.4         32.2
##  5  2017 Bondi Beach       13.2         32.2
##  6  2018 Bondi Beach       22.9         32.2
##  7  2013 Bronte Beach      26.8         61.3
##  8  2014 Bronte Beach      17.5         61.3
##  9  2015 Bronte Beach      23.6         61.3
## 10  2016 Bronte Beach      61.3         61.3
## # … with 56 more rows
```

```r
#makes a new table where the buglevels are normalized to the max_buglevel
beachbugs_normalized <- beachbugs_w_max %>% 
  group_by(site) %>% 
  mutate(norm_buglevel = buglevels/max_buglevel) %>% 
  arrange(site,year) %>%
  select(site, year, norm_buglevel)   # you dont have to select(), but I think its a clearer looking table
beachbugs_normalized
```

```
## # A tibble: 66 × 3
## # Groups:   site [11]
##    site          year norm_buglevel
##    <chr>        <dbl>         <dbl>
##  1 Bondi Beach   2013         1    
##  2 Bondi Beach   2014         0.344
##  3 Bondi Beach   2015         0.445
##  4 Bondi Beach   2016         0.601
##  5 Bondi Beach   2017         0.409
##  6 Bondi Beach   2018         0.710
##  7 Bronte Beach  2013         0.436
##  8 Bronte Beach  2014         0.285
##  9 Bronte Beach  2015         0.385
## 10 Bronte Beach  2016         1    
## # … with 56 more rows
```
…
### 10. Choose one intersection of the venn diagram that is interesting to you. Use dplyr to find the names of the superheros in that intersection. 


```r
superhero_info1 %>%
  filter(eye_color == "red") %>% 
  filter(alignment == "bad") %>%
  filter(gender == "Male")
```

```
## # A tibble: 21 × 10
##    name  gender eye_color race  hair_color height publisher skin_color alignment
##    <chr> <chr>  <chr>     <chr> <chr>       <dbl> <chr>     <chr>      <chr>    
##  1 Amazo Male   red       Andr… <NA>          257 DC Comics <NA>       bad      
##  2 Apoc… Male   red       Muta… Black         213 Marvel C… grey       bad      
##  3 Blac… Male   red       <NA>  Black          NA Marvel C… <NA>       bad      
##  4 Blac… Male   red       Demon White         191 Marvel C… white      bad      
##  5 Dark… Male   red       New … No Hair       267 DC Comics grey       bad      
##  6 Demo… Male   red       Demon No Hair       185 Marvel C… <NA>       bad      
##  7 Doom… Male   red       Alien White         244 DC Comics <NA>       bad      
##  8 Evil… Male   red       Alien Black         191 Marvel C… green      bad      
##  9 Kill… Male   red       Meta… No Hair       244 DC Comics green      bad      
## 10 Klaw  Male   red       Human No Hair       188 Marvel C… red        bad      
## # … with 11 more rows, and 1 more variable: weight <dbl>
```


```r
superhero_info1
```

```
## # A tibble: 734 × 10
##    name  gender eye_color race  hair_color height publisher skin_color alignment
##    <chr> <chr>  <chr>     <chr> <chr>       <dbl> <chr>     <chr>      <chr>    
##  1 A-Bo… Male   yellow    Human No Hair       203 Marvel C… <NA>       good     
##  2 Abe … Male   blue      Icth… No Hair       191 Dark Hor… blue       good     
##  3 Abin… Male   blue      Unga… No Hair       185 DC Comics red        good     
##  4 Abom… Male   green     Huma… No Hair       203 Marvel C… <NA>       bad      
##  5 Abra… Male   blue      Cosm… Black          NA Marvel C… <NA>       bad      
##  6 Abso… Male   blue      Human No Hair       193 Marvel C… <NA>       bad      
##  7 Adam… Male   blue      <NA>  Blond          NA NBC - He… <NA>       good     
##  8 Adam… Male   blue      Human Blond         185 DC Comics <NA>       good     
##  9 Agen… Female blue      <NA>  Blond         173 Marvel C… <NA>       good     
## 10 Agen… Male   brown     Human Brown         178 Marvel C… <NA>       good     
## # … with 724 more rows, and 1 more variable: weight <dbl>
```
…
```r
power_frequency <- superhero_powers %>% 
  select(-hero_names) %>%
  summarise_all(~(sum(.))) %>%
  pivot_longer(everything(), names_to = "power", values_to = "freq")
power_frequency
```

```
## # A tibble: 167 × 2
##    power                  freq
##    <chr>                 <int>
##  1 Agility                 242
##  2 Accelerated Healing     178
##  3 Lantern Power Ring       11
##  4 Dimensional Awareness    25
##  5 Cold Resistance          47
##  6 Durability              257
##  7 Stealth                 126
##  8 Energy Absorption        77
##  9 Flight                  212
## 10 Danger Sense             30
## # … with 157 more rows
```
…
```r
power_quantity <- superhero_powers %>% 
  pivot_longer(-hero_names, names_to = "power", values_to = "yes_or_no") %>% 
  group_by(hero_names) %>% 
  mutate(sum_powers = sum(yes_or_no, na.rm=T)) %>%
  arrange(desc(sum_powers), hero_names, desc(yes_or_no))
power_quantity
```

```
## # A tibble: 111,389 × 4
## # Groups:   hero_names [667]
##    hero_names power                 yes_or_no sum_powers
##    <chr>      <chr>                 <lgl>          <int>
##  1 Spectre    Agility               TRUE              49
##  2 Spectre    Accelerated Healing   TRUE              49
##  3 Spectre    Dimensional Awareness TRUE              49
##  4 Spectre    Stealth               TRUE              49
##  5 Spectre    Energy Absorption     TRUE              49
##  6 Spectre    Flight                TRUE              49
##  7 Spectre    Marksmanship          TRUE              49
##  8 Spectre    Longevity             TRUE              49
##  9 Spectre    Intelligence          TRUE              49
## 10 Spectre    Super Strength        TRUE              49
## # … with 111,379 more rows
```

```r
#we have to trim down to only the top 50, or it will crowd the image!
power_quantity <- power_quantity %>% 
  ungroup %>%
  distinct(hero_names, sum_powers) %>%
  slice_max(sum_powers, n = 50)
power_quantity
```

```
## # A tibble: 51 × 2
##    hero_names        sum_powers
##    <chr>                  <int>
##  1 Spectre                   49
##  2 Amazo                     44
##  3 Living Tribunal           35
##  4 Martian Manhunter         35
##  5 Man of Miracles           34
##  6 Captain Marvel            33
##  7 T-X                       33
##  8 Galactus                  32
##  9 T-1000                    32
## 10 Mister Mxyzptlk           31
## # … with 41 more rows
```
…
