…
2. Notice that we have some neutral superheros! Who are they?

```r
filter(superhero_info, Alignment == "neutral")
```

```
## # A tibble: 24 × 10
##    name    Gender `Eye color` Race    `Hair color` Height Publisher `Skin color`
##    <chr>   <chr>  <chr>       <chr>   <chr>         <dbl> <chr>     <chr>       
##  1 Bizarro Male   black       Bizarro Black           191 DC Comics white       
##  2 Black … Male   <NA>        God / … <NA>             NA DC Comics <NA>        
##  3 Captai… Male   brown       Human   Brown            NA DC Comics <NA>        
##  4 Copycat Female red         Mutant  White           183 Marvel C… blue        
##  5 Deadpo… Male   brown       Mutant  No Hair         188 Marvel C… <NA>        
##  6 Deaths… Male   blue        Human   White           193 DC Comics <NA>        
##  7 Etrigan Male   red         Demon   No Hair         193 DC Comics yellow      
##  8 Galact… Male   black       Cosmic… Black           876 Marvel C… <NA>        
##  9 Gladia… Male   blue        Stront… Blue            198 Marvel C… purple      
## 10 Indigo  Female <NA>        Alien   Purple           NA DC Comics <NA>        
## # … with 14 more rows, and 2 more variables: Alignment <chr>, Weight <dbl>
```

## `superhero_info`
3. Let's say we are only interested in the variables name, alignment, and "race". How would you isolate these variables from `superhero_info`?

```r
select(superhero_info, name, Alignment, "Race")
```

```
## # A tibble: 734 × 3
##    name          Alignment Race             
##    <chr>         <chr>     <chr>            
##  1 A-Bomb        good      Human            
##  2 Abe Sapien    good      Icthyo Sapien    
##  3 Abin Sur      good      Ungaran          
##  4 Abomination   bad       Human / Radiation
##  5 Abraxas       bad       Cosmic Entity    
##  6 Absorbing Man bad       Human            
##  7 Adam Monroe   good      <NA>             
##  8 Adam Strange  good      Human            
##  9 Agent 13      good      <NA>             
## 10 Agent Bob     good      Human            
## # … with 724 more rows
```
…
## Not Human
4. List all of the superheros that are not human.

## Good and Evil
5. Let's make two different data frames, one focused on the "good guys" and another focused on the "bad guys".```{r}
filter(superhero_info, Alignment == "good")
```

```r
filter(superhero_info, Alignment == "good")
```

```
## # A tibble: 496 × 10
##    name    Gender `Eye color` Race   `Hair color` Height Publisher  `Skin color`
##    <chr>   <chr>  <chr>       <chr>  <chr>         <dbl> <chr>      <chr>       
##  1 A-Bomb  Male   yellow      Human  No Hair         203 Marvel Co… <NA>        
##  2 Abe Sa… Male   blue        Icthy… No Hair         191 Dark Hors… blue        
##  3 Abin S… Male   blue        Ungar… No Hair         185 DC Comics  red         
##  4 Adam M… Male   blue        <NA>   Blond            NA NBC - Her… <NA>        
##  5 Adam S… Male   blue        Human  Blond           185 DC Comics  <NA>        
##  6 Agent … Female blue        <NA>   Blond           173 Marvel Co… <NA>        
##  7 Agent … Male   brown       Human  Brown           178 Marvel Co… <NA>        
##  8 Agent … Male   <NA>        <NA>   <NA>            191 Marvel Co… <NA>        
##  9 Alan S… Male   blue        <NA>   Blond           180 DC Comics  <NA>        
## 10 Alex W… Male   <NA>        <NA>   <NA>             NA NBC - Her… <NA>        
## # … with 486 more rows, and 2 more variables: Alignment <chr>, Weight <dbl>
```



```r
filter(superhero_info, Alignment == "bad")
```

```
## # A tibble: 207 × 10
##    name    Gender `Eye color` Race   `Hair color` Height Publisher  `Skin color`
##    <chr>   <chr>  <chr>       <chr>  <chr>         <dbl> <chr>      <chr>       
##  1 Abomin… Male   green       Human… No Hair         203 Marvel Co… <NA>        
##  2 Abraxas Male   blue        Cosmi… Black            NA Marvel Co… <NA>        
##  3 Absorb… Male   blue        Human  No Hair         193 Marvel Co… <NA>        
##  4 Air-Wa… Male   blue        <NA>   White           188 Marvel Co… <NA>        
##  5 Ajax    Male   brown       Cyborg Black           193 Marvel Co… <NA>        
##  6 Alex M… Male   <NA>        Human  <NA>             NA Wildstorm  <NA>        
##  7 Alien   Male   <NA>        Xenom… No Hair         244 Dark Hors… black       
##  8 Amazo   Male   red         Andro… <NA>            257 DC Comics  <NA>        
##  9 Ammo    Male   brown       Human  Black           188 Marvel Co… <NA>        
## 10 Angela  Female <NA>        <NA>   <NA>             NA Image Com… <NA>        
## # … with 197 more rows, and 2 more variables: Alignment <chr>, Weight <dbl>
```
…
8. Among the bad guys, who are the male humans over 200 inches in height?

```r
superhero_info %>%
  select(Alignment, Height) %>%
  filter( Alignment == "bad") %>%
  filter(Height >= "200")
```

```
## # A tibble: 28 × 2
##    Alignment Height
##    <chr>      <dbl>
##  1 bad        203  
##  2 bad        244  
##  3 bad        257  
##  4 bad         61  
##  5 bad        213  
##  6 bad        203  
##  7 bad        218  
##  8 bad         30.5
##  9 bad        267  
## 10 bad        201  
## # … with 18 more rows
```
…
12. ...and the superheros over 450 in weight. Bonus question! Why do we not have 16 rows in question #10?

```r
filter(superhero_info, Weight >= "450")
```

```
## # A tibble: 339 × 10
##    name    Gender `Eye color` Race   `Hair color` Height Publisher  `Skin color`
##    <chr>   <chr>  <chr>       <chr>  <chr>         <dbl> <chr>      <chr>       
##  1 Abe Sa… Male   blue        Icthy… No Hair         191 Dark Hors… blue        
##  2 Abin S… Male   blue        Ungar… No Hair         185 DC Comics  red         
##  3 Adam S… Male   blue        Human  Blond           185 DC Comics  <NA>        
##  4 Agent … Female blue        <NA>   Blond           173 Marvel Co… <NA>        
##  5 Agent … Male   brown       Human  Brown           178 Marvel Co… <NA>        
##  6 Ajax    Male   brown       Cyborg Black           193 Marvel Co… <NA>        
##  7 Alan S… Male   blue        <NA>   Blond           180 DC Comics  <NA>        
##  8 Alfred… Male   blue        Human  Black           178 DC Comics  <NA>        
##  9 Angel   Male   blue        <NA>   Blond           183 Marvel Co… <NA>        
## 10 Angel … Female yellow      Mutant Black           165 Marvel Co… <NA>        
## # … with 329 more rows, and 2 more variables: Alignment <chr>, Weight <dbl>
```

## Height to Weight Ratio
13. It's easy to be strong when you are heavy and tall, but who is heavy and short? Which superheros have the highest height to weight ratio?

```r
superhero_info %>% 
  select(Height, Weight) %>% 
  arrange(Weight)
```

```
## # A tibble: 734 × 2
##    Height Weight
##     <dbl>  <dbl>
##  1     NA      2
##  2    701      4
##  3     71     14
##  4    876     16
##  5     66     17
##  6    975     18
##  7     79     18
##  8     64     18
##  9    122     25
## 10    122     27
## # … with 724 more rows
```
…
14. How many superheros have a combination of accelerated healing, durability, and super strength?

```r
superhero_powers %>% 
  select(accelerated_healing, durability, super_strength)
```

```
## # A tibble: 667 × 3
##    accelerated_healing durability super_strength
##    <lgl>               <lgl>      <lgl>         
##  1 FALSE               FALSE      TRUE          
##  2 TRUE                TRUE       TRUE          
##  3 TRUE                TRUE       TRUE          
##  4 FALSE               FALSE      FALSE         
##  5 TRUE                FALSE      TRUE          
##  6 FALSE               FALSE      TRUE          
##  7 FALSE               TRUE       TRUE          
##  8 TRUE                FALSE      FALSE         
##  9 FALSE               TRUE       FALSE         
## 10 FALSE               FALSE      FALSE         
## # … with 657 more rows
```
…
