…
```r
amniota_tidy2 <- amniota %>% 
  na_if("-999.00") %>%
  na_if("-999")
```

**6. Use the package `naniar` to produce a summary, including percentages, of missing data in each column for the `amniota` data.**  

```r
naniar::miss_var_summary(amniota_tidy2)
```

```
## # A tibble: 36 × 3
##    variable                       n_miss pct_miss
##    <chr>                           <int>    <dbl>
##  1 subspecies                      21322    100  
##  2 female_body_mass_at_maturity_g  21318    100. 
##  3 female_svl_at_maturity_cm       21120     99.1
##  4 fledging_mass_g                 21111     99.0
##  5 male_svl_cm                     21040     98.7
##  6 no_sex_maturity_d               20860     97.8
##  7 egg_width_mm                    20727     97.2
##  8 egg_length_mm                   20702     97.1
##  9 weaning_weight_g                20258     95.0
## 10 female_svl_cm                   20242     94.9
## # … with 26 more rows
```

**7. Use the package `naniar` to produce a summary, including percentages, of missing data in each column for the `amphibio` data.**

```r
naniar::miss_var_summary(amphibio)
```

```
## # A tibble: 38 × 3
##    variable n_miss pct_miss
##    <chr>     <int>    <dbl>
##  1 fruits     6774    100. 
##  2 flowers    6772     99.9
##  3 seeds      6772     99.9
##  4 leaves     6752     99.6
##  5 dry_cold   6735     99.4
##  6 vert       6657     98.2
##  7 obs        6651     98.2
##  8 wet_cold   6625     97.8
##  9 crepu      6608     97.5
## 10 dry_warm   6572     97.0
## # … with 28 more rows
```
…
**9. The `amphibio` data have variables that classify species as fossorial (burrowing), terrestrial, aquatic, or arboreal.Calculate the number of NA's in each of these variables. Do you think that the authors intend us to think that there are NA's in these columns or could they represent something else? Explain.**

```r
amphibio %>%
  group_by(species) %>%
  select(species, fos, ter, aqu, arb) %>% 
  naniar::miss_var_summary(order=T)
```

```
## # A tibble: 27,104 × 4
## # Groups:   species [6,776]
##    species             variable n_miss pct_miss
##    <chr>               <chr>     <int>    <dbl>
##  1 Allophryne ruthveni fos           1      100
##  2 Allophryne ruthveni ter           0        0
##  3 Allophryne ruthveni aqu           0        0
##  4 Allophryne ruthveni arb           0        0
##  5 Alytes cisternasii  fos           1      100
##  6 Alytes cisternasii  ter           0        0
##  7 Alytes cisternasii  aqu           0        0
##  8 Alytes cisternasii  arb           0        0
##  9 Alytes dickhilleni  fos           1      100
## 10 Alytes dickhilleni  ter           0        0
## # … with 27,094 more rows
```
…
